Dengue Data Hub - World
…
Level of Dengue risk around the world

library(denguedatahub)
library(tsibble)

Attaching package: 'tsibble'

The following objects are masked from 'package:base':

    intersect, setdiff, union

level_of_risk

# A tibble: 138 × 3
   country                  level_of_risk       region
   <fct>                    <fct>               <fct> 
 1 Angola                   Sporadic/Uncertain  Africa
 2 Benin                    Sporadic/Uncertain  Africa
 3 Burkina Faso             Frequent/Continuous Africa
 4 Burundi                  Sporadic/Uncertain  Africa
 5 Cameroon                 Sporadic/Uncertain  Africa
 6 Cape Verde               Sporadic/Uncertain  Africa
 7 Central African Republic Sporadic/Uncertain  Africa
 8 Chad                     Sporadic/Uncertain  Africa
 9 Comoros                  Sporadic/Uncertain  Africa
10 Congo                    Sporadic/Uncertain  Africa
# ℹ 128 more rows
…
Annual number of dengue fever infections around the world from 1990 to 2019 in 225 countries

world_annual

# A tibble: 6,750 × 4
   entity      code   year incidence
   <chr>       <chr> <dbl>     <dbl>
 1 Afghanistan AFG    1990     23371
 2 Afghanistan AFG    1991     25794
 3 Afghanistan AFG    1992     29766
 4 Afghanistan AFG    1993     32711
 5 Afghanistan AFG    1994     34268
 6 Afghanistan AFG    1995     35823
 7 Afghanistan AFG    1996     37397
 8 Afghanistan AFG    1997     38862
 9 Afghanistan AFG    1998     39660
10 Afghanistan AFG    1999     39987
# ℹ 6,740 more rows
…
